Position,Name + ID,Name,ID,Roster Position,Salary,Game Info,TeamAbbrev,AvgPointsPerGame
G,Rickie Fowler (14126569),Rickie Fowler,14126569,G,11500,The American Express,Golf,71.5
G,Sungjae Im (14126570),Sungjae Im,14126570,G,11000,The American Express,Golf,86.29
G,Paul Casey (14126571),Paul Casey,14126571,G,10700,The American Express,Golf,73.5
G,Tony Finau (14126572),Tony Finau,14126572,G,10500,The American Express,Golf,74.21
G,Byeong Hun An (14126573),Byeong Hun An,14126573,G,10300,The American Express,Golf,69.72
G,Charles Howell III (14126574),Charles Howell III,14126574,G,10100,The American Express,Golf,75.56
G,Kevin Kisner (14126575),Kevin Kisner,14126575,G,9900,The American Express,Golf,63.44
G,Billy Horschel (14126576),Billy Horschel,14126576,G,9700,The American Express,Golf,74.17
G,Scottie Scheffler (14126577),Scottie Scheffler,14126577,G,9500,The American Express,Golf,90.36
G,Cameron Champ (14126578),Cameron Champ,14126578,G,9300,The American Express,Golf,78.5
G,Francesco Molinari (14126579),Francesco Molinari,14126579,G,9200,The American Express,Golf,64.92
G,Jason Kokrak (14126580),Jason Kokrak,14126580,G,9100,The American Express,Golf,59
G,Matthew Wolff (14126581),Matthew Wolff,14126581,G,9000,The American Express,Golf,75.25
G,Abraham Ancer (14126582),Abraham Ancer,14126582,G,8900,The American Express,Golf,67
G,Brendon Todd (14126583),Brendon Todd,14126583,G,8800,The American Express,Golf,69.35
G,Phil Mickelson (14126584),Phil Mickelson,14126584,G,8700,The American Express,Golf,64.25
G,Brian Harman (14126585),Brian Harman,14126585,G,8600,The American Express,Golf,77.29
G,J.T. Poston (14126586),J.T. Poston,14126586,G,8500,The American Express,Golf,67.94
G,Alex Noren (14126587),Alex Noren,14126587,G,8400,The American Express,Golf,74
G,Ryan Moore (14126588),Ryan Moore,14126588,G,8300,The American Express,Golf,66.88
G,Lucas Glover (14126589),Lucas Glover,14126589,G,8200,The American Express,Golf,59
G,Russell Knox (14126590),Russell Knox,14126590,G,8100,The American Express,Golf,68.09
G,Chez Reavie (14126591),Chez Reavie,14126591,G,8000,The American Express,Golf,56.39
G,Vaughn Taylor (14126592),Vaughn Taylor,14126592,G,7900,The American Express,Golf,73.14
G,Andrew Putnam (14126593),Andrew Putnam,14126593,G,7800,The American Express,Golf,80.57
G,Kevin Na (14126594),Kevin Na,14126594,G,7800,The American Express,Golf,72.92
G,Harris English (14126595),Harris English,14126595,G,7700,The American Express,Golf,85.42
G,Zach Johnson (14126596),Zach Johnson,14126596,G,7700,The American Express,Golf,60.5
G,Rory Sabbatini (14126597),Rory Sabbatini,14126597,G,7600,The American Express,Golf,65.33
G,Denny McCarthy (14126598),Denny McCarthy,14126598,G,7600,The American Express,Golf,86.86
G,Brendan Steele (14126599),Brendan Steele,14126599,G,7500,The American Express,Golf,67.14
G,Daniel Berger (14126600),Daniel Berger,14126600,G,7500,The American Express,Golf,68.3
G,Scott Piercy (14126601),Scott Piercy,14126601,G,7400,The American Express,Golf,56.71
G,Sebastian Munoz (14126602),Sebastian Munoz,14126602,G,7400,The American Express,Golf,74.28
G,Bud Cauley (14126603),Bud Cauley,14126603,G,7300,The American Express,Golf,59.9
G,Aaron Wise (14126604),Aaron Wise,14126604,G,7300,The American Express,Golf,53.5
G,Danny Lee (14126605),Danny Lee,14126605,G,7300,The American Express,Golf,76.33
G,Carlos Ortiz (14126606),Carlos Ortiz,14126606,G,7200,The American Express,Golf,81.36
G,Joel Dahmen (14126607),Joel Dahmen,14126607,G,7200,The American Express,Golf,66
G,Adam Long (14126608),Adam Long,14126608,G,7200,The American Express,Golf,76.28
G,Nate Lashley (14126609),Nate Lashley,14126609,G,7200,The American Express,Golf,61.86
G,Henrik Norlander (14126610),Henrik Norlander,14126610,G,7100,The American Express,Golf,58.78
G,Talor Gooch (14126611),Talor Gooch,14126611,G,7100,The American Express,Golf,63.64
G,Austin Cook (14126612),Austin Cook,14126612,G,7100,The American Express,Golf,51
G,Cameron Tringale (14126613),Cameron Tringale,14126613,G,7100,The American Express,Golf,77.17
G,Brian Stuard (14126614),Brian Stuard,14126614,G,7100,The American Express,Golf,70
G,Brian Gay (14126615),Brian Gay,14126615,G,7000,The American Express,Golf,77.12
G,Si Woo Kim (14126616),Si Woo Kim,14126616,G,7000,The American Express,Golf,53.81
G,Ryan Armour (14126617),Ryan Armour,14126617,G,7000,The American Express,Golf,54.88
G,Harold Varner III (14126618),Harold Varner III,14126618,G,7000,The American Express,Golf,77.86
G,Nick Taylor (14126619),Nick Taylor,14126619,G,7000,The American Express,Golf,69.19
G,Kyle Stanley (14126620),Kyle Stanley,14126620,G,7000,The American Express,Golf,49.93
G,Harry Higgs (14126621),Harry Higgs,14126621,G,6900,The American Express,Golf,66.22
G,Lucas Bjerregaard (14126622),Lucas Bjerregaard,14126622,G,6900,The American Express,Golf,50.57
G,Kevin Streelman (14126623),Kevin Streelman,14126623,G,6900,The American Express,Golf,47.62
G,Wyndham Clark (14126624),Wyndham Clark,14126624,G,6900,The American Express,Golf,47.5
G,Cameron Davis (14126625),Cameron Davis,14126625,G,6900,The American Express,Golf,38.69
G,Brice Garnett (14126626),Brice Garnett,14126626,G,6900,The American Express,Golf,53.29
G,Richy Werenski (14126627),Richy Werenski,14126627,G,6800,The American Express,Golf,71.5
G,Doc Redman (14126628),Doc Redman,14126628,G,6800,The American Express,Golf,62
G,Bo Hoag (14126629),Bo Hoag,14126629,G,6800,The American Express,Golf,68.17
G,Russell Henley (14126630),Russell Henley,14126630,G,6800,The American Express,Golf,51.21
G,Jhonattan Vegas (14126631),Jhonattan Vegas,14126631,G,6800,The American Express,Golf,45.67
G,Bronson Burgoon (14126632),Bronson Burgoon,14126632,G,6800,The American Express,Golf,70.14
G,Tyler Duncan (14126633),Tyler Duncan,14126633,G,6800,The American Express,Golf,58.56
G,Kevin Chappell (14126634),Kevin Chappell,14126634,G,6700,The American Express,Golf,55.3
G,D.J. Trahan (14126635),D.J. Trahan,14126635,G,6700,The American Express,Golf,70.08
G,Stewart Cink (14126636),Stewart Cink,14126636,G,6700,The American Express,Golf,75.75
G,Bill Haas (14126637),Bill Haas,14126637,G,6700,The American Express,Golf,49.4
G,Matthew NeSmith (14126638),Matthew NeSmith,14126638,G,6700,The American Express,Golf,55.56
G,Nick Watney (14126639),Nick Watney,14126639,G,6700,The American Express,Golf,57.75
G,Hudson Swafford (14126640),Hudson Swafford,14126640,G,6700,The American Express,Golf,54.88
G,Scott Stallings (14126641),Scott Stallings,14126641,G,6600,The American Express,Golf,66.79
G,Patton Kizzire (14126642),Patton Kizzire,14126642,G,6600,The American Express,Golf,44.81
G,Beau Hossler (14126643),Beau Hossler,14126643,G,6600,The American Express,Golf,65.43
G,Max Homa (14126644),Max Homa,14126644,G,6600,The American Express,Golf,54.2
G,Charley Hoffman (14126645),Charley Hoffman,14126645,G,6600,The American Express,Golf,54.83
G,Jimmy Walker (14126646),Jimmy Walker,14126646,G,6600,The American Express,Golf,35.75
G,Michael Thompson (14126647),Michael Thompson,14126647,G,6600,The American Express,Golf,47.33
G,Peter Malnati (14126648),Peter Malnati,14126648,G,6600,The American Express,Golf,53.88
G,Andrew Landry (14126649),Andrew Landry,14126649,G,6500,The American Express,Golf,31.62
G,Jason Dufner (14126650),Jason Dufner,14126650,G,6500,The American Express,Golf,31.08
G,Patrick Rodgers (14126651),Patrick Rodgers,14126651,G,6500,The American Express,Golf,54.06
G,Tom Hoge (14126652),Tom Hoge,14126652,G,6500,The American Express,Golf,53.14
G,Greg Chalmers (14126653),Greg Chalmers,14126653,G,6500,The American Express,Golf,32.5
G,Scott Harrington (14126654),Scott Harrington,14126654,G,6500,The American Express,Golf,67.56
G,Kramer Hickok (14126655),Kramer Hickok,14126655,G,6500,The American Express,Golf,48.81
G,Sam Ryder (14126656),Sam Ryder,14126656,G,6500,The American Express,Golf,54.78
G,Roger Sloan (14126657),Roger Sloan,14126657,G,6500,The American Express,Golf,42.21
G,Cameron Percy (14126658),Cameron Percy,14126658,G,6400,The American Express,Golf,56.86
G,Luke List (14126659),Luke List,14126659,G,6400,The American Express,Golf,55.94
G,Rob Oppenheim (14126660),Rob Oppenheim,14126660,G,6400,The American Express,Golf,57.44
G,Xinjun Zhang (14126661),Xinjun Zhang,14126661,G,6400,The American Express,Golf,63.94
G,Troy Merritt (14126662),Troy Merritt,14126662,G,6400,The American Express,Golf,61.95
G,Martin Laird (14126663),Martin Laird,14126663,G,6400,The American Express,Golf,50.07
G,Aaron Baddeley (14126664),Aaron Baddeley,14126664,G,6400,The American Express,Golf,59.7
G,Steve Stricker (14126665),Steve Stricker,14126665,G,6400,The American Express,Golf,0
G,Fabian Gomez (14126666),Fabian Gomez,14126666,G,6400,The American Express,Golf,60
G,Adam Schenk (14126667),Adam Schenk,14126667,G,6400,The American Express,Golf,48.44
G,Chase Seiffert (14126668),Chase Seiffert,14126668,G,6300,The American Express,Golf,56.38
G,David Hearn (14126669),David Hearn,14126669,G,6300,The American Express,Golf,62.62
G,Mackenzie Hughes (14126670),Mackenzie Hughes,14126670,G,6300,The American Express,Golf,37
G,Grayson Murray (14126671),Grayson Murray,14126671,G,6300,The American Express,Golf,33.1
G,Ben Martin (14126672),Ben Martin,14126672,G,6300,The American Express,Golf,45.1
G,Zac Blair (14126673),Zac Blair,14126673,G,6300,The American Express,Golf,52.44
G,Josh Teater (14126674),Josh Teater,14126674,G,6300,The American Express,Golf,42.2
G,Seung-Yul Noh (14126675),Seung-Yul Noh,14126675,G,6300,The American Express,Golf,0
G,John Huh (14126676),John Huh,14126676,G,6300,The American Express,Golf,52
G,Chesson Hadley (14126677),Chesson Hadley,14126677,G,6300,The American Express,Golf,63.75
G,Anirban Lahiri (14126678),Anirban Lahiri,14126678,G,6300,The American Express,Golf,41.75
G,Kyoung-Hoon Lee (14126679),Kyoung-Hoon Lee,14126679,G,6300,The American Express,Golf,46.61
G,Scott Brown (14126680),Scott Brown,14126680,G,6200,The American Express,Golf,48.25
G,Wes Roach (14126681),Wes Roach,14126681,G,6200,The American Express,Golf,61.58
G,Ted Potter Jr. (14126682),Ted Potter Jr.,14126682,G,6200,The American Express,Golf,36.75
G,James Hahn (14126683),James Hahn,14126683,G,6200,The American Express,Golf,53.3
G,Doug Ghim (14126684),Doug Ghim,14126684,G,6200,The American Express,Golf,39.5
G,Chris Stroud (14126685),Chris Stroud,14126685,G,6200,The American Express,Golf,54.7
G,Tim Wilkinson (14126686),Tim Wilkinson,14126686,G,6200,The American Express,Golf,54.1
G,Brandon Hagy (14126687),Brandon Hagy,14126687,G,6200,The American Express,Golf,32.21
G,Mark Anderson (14126688),Mark Anderson,14126688,G,6200,The American Express,Golf,49.36
G,Maverick McNealy (14126689),Maverick McNealy,14126689,G,6200,The American Express,Golf,67.94
G,Hank Lebioda (14126690),Hank Lebioda,14126690,G,6200,The American Express,Golf,55.75
G,Sepp Straka (14126691),Sepp Straka,14126691,G,6200,The American Express,Golf,40.39
G,Robby Shelton (14126692),Robby Shelton,14126692,G,6200,The American Express,Golf,57.44
G,Matt Every (14126693),Matt Every,14126693,G,6100,The American Express,Golf,46.92
G,Ricky Barnes (14126694),Ricky Barnes,14126694,G,6100,The American Express,Golf,67.7
G,Tyler McCumber (14126695),Tyler McCumber,14126695,G,6100,The American Express,Golf,52.25
G,Sebastian Cappelen (14126696),Sebastian Cappelen,14126696,G,6100,The American Express,Golf,51.21
G,Robert Streb (14126697),Robert Streb,14126697,G,6100,The American Express,Golf,56.62
G,Hunter Mahan (14126698),Hunter Mahan,14126698,G,6100,The American Express,Golf,17
G,Ryan Brehm (14126699),Ryan Brehm,14126699,G,6100,The American Express,Golf,48.22
G,Sam Burns (14126700),Sam Burns,14126700,G,6100,The American Express,Golf,35
G,Michael Gellerman (14126701),Michael Gellerman,14126701,G,6100,The American Express,Golf,43.57
G,Isaiah Salinda (14126702),Isaiah Salinda,14126702,G,6100,The American Express,Golf,67.25
G,Brian Smock (14126703),Brian Smock,14126703,G,6100,The American Express,Golf,0
G,Rhein Gibson (14126704),Rhein Gibson,14126704,G,6100,The American Express,Golf,58.61
G,Mark Hubbard (14126705),Mark Hubbard,14126705,G,6100,The American Express,Golf,68.33
G,Ben Crane (14126706),Ben Crane,14126706,G,6100,The American Express,Golf,51.8
G,Joseph Bramlett (14126707),Joseph Bramlett,14126707,G,6100,The American Express,Golf,54.75
G,Vincent Whaley (14126708),Vincent Whaley,14126708,G,6000,The American Express,Golf,35.67
G,Michael Gligic (14126709),Michael Gligic,14126709,G,6000,The American Express,Golf,43
G,Martin Trainer (14126710),Martin Trainer,14126710,G,6000,The American Express,Golf,26.07
G,Bo Van Pelt (14126711),Bo Van Pelt,14126711,G,6000,The American Express,Golf,27.67
G,Kristoffer Ventura (14126712),Kristoffer Ventura,14126712,G,6000,The American Express,Golf,46.19
G,Nelson Ledesma (14126713),Nelson Ledesma,14126713,G,6000,The American Express,Golf,36.94
G,Kevin Stadler (14126714),Kevin Stadler,14126714,G,6000,The American Express,Golf,21.4
G,Mark Wilson (14126715),Mark Wilson,14126715,G,6000,The American Express,Golf,33
G,J.J. Spaun (14126716),J.J. Spaun,14126716,G,6000,The American Express,Golf,47.38
G,Charles Reiter (14126717),Charles Reiter,14126717,G,6000,The American Express,Golf,0
G,Vince Covello (14126718),Vince Covello,14126718,G,6000,The American Express,Golf,35.79
G,Chris Baker (14126719),Chris Baker,14126719,G,6000,The American Express,Golf,36.44
G,Sam Saunders (14126720),Sam Saunders,14126720,G,6000,The American Express,Golf,0
G,Ben Taylor (14126721),Ben Taylor,14126721,G,6000,The American Express,Golf,45.67
G,Rafael Campos (14126722),Rafael Campos,14126722,G,6000,The American Express,Golf,54.38
G,John Senden (14126723),John Senden,14126723,G,6000,The American Express,Golf,30
G,Akshay Bhatia (14126724),Akshay Bhatia,14126724,G,6000,The American Express,Golf,27.5
