Position,Name + ID,Name,ID,Roster Position,Salary,Game Info,TeamAbbrev,AvgPointsPerGame
G,Justin Thomas (14727069),Justin Thomas,14727069,G,11100,Workday Charity Open,Golf,84.12
G,Jon Rahm (14727070),Jon Rahm,14727070,G,10900,Workday Charity Open,Golf,87.61
G,Patrick Cantlay (14727071),Patrick Cantlay,14727071,G,10600,Workday Charity Open,Golf,88.88
G,Brooks Koepka (14727072),Brooks Koepka,14727072,G,10400,Workday Charity Open,Golf,60.06
G,Xander Schauffele (14727073),Xander Schauffele,14727073,G,10200,Workday Charity Open,Golf,82.33
G,Hideki Matsuyama (14727074),Hideki Matsuyama,14727074,G,10000,Workday Charity Open,Golf,78.77
G,Justin Rose (14727075),Justin Rose,14727075,G,9700,Workday Charity Open,Golf,62.28
G,Viktor Hovland (14727076),Viktor Hovland,14727076,G,9500,Workday Charity Open,Golf,69.17
G,Collin Morikawa (14727077),Collin Morikawa,14727077,G,9200,Workday Charity Open,Golf,76.68
G,Rickie Fowler (14727078),Rickie Fowler,14727078,G,9000,Workday Charity Open,Golf,62.2
G,Sungjae Im (14727079),Sungjae Im,14727079,G,8900,Workday Charity Open,Golf,76.61
G,Patrick Reed (14727080),Patrick Reed,14727080,G,8800,Workday Charity Open,Golf,75.68
G,Marc Leishman (14727081),Marc Leishman,14727081,G,8700,Workday Charity Open,Golf,65.32
G,Jordan Spieth (14727082),Jordan Spieth,14727082,G,8600,Workday Charity Open,Golf,67.42
G,Matt Kuchar (14727083),Matt Kuchar,14727083,G,8500,Workday Charity Open,Golf,67.91
G,Joaquin Niemann (14727084),Joaquin Niemann,14727084,G,8400,Workday Charity Open,Golf,64.33
G,Gary Woodland (14727085),Gary Woodland,14727085,G,8300,Workday Charity Open,Golf,77.96
G,Adam Hadwin (14727086),Adam Hadwin,14727086,G,8200,Workday Charity Open,Golf,79.73
G,Matthew Wolff (14727087),Matthew Wolff,14727087,G,8100,Workday Charity Open,Golf,60.43
G,Matthew Fitzpatrick (14727088),Matthew Fitzpatrick,14727088,G,8000,Workday Charity Open,Golf,70.59
G,Bubba Watson (14727089),Bubba Watson,14727089,G,8000,Workday Charity Open,Golf,61.21
G,Louis Oosthuizen (14727090),Louis Oosthuizen,14727090,G,7900,Workday Charity Open,Golf,70.45
G,Byeong Hun An (14727091),Byeong Hun An,14727091,G,7900,Workday Charity Open,Golf,66.69
G,Phil Mickelson (14727092),Phil Mickelson,14727092,G,7800,Workday Charity Open,Golf,58.88
G,Kevin Streelman (14727093),Kevin Streelman,14727093,G,7800,Workday Charity Open,Golf,54.24
G,Scottie Scheffler (14727094),Scottie Scheffler,14727094,G,7800,Workday Charity Open,Golf,74.06
G,Joel Dahmen (14727095),Joel Dahmen,14727095,G,7700,Workday Charity Open,Golf,70.22
G,Jason Day (14727096),Jason Day,14727096,G,7700,Workday Charity Open,Golf,50.5
G,Cameron Champ (14727097),Cameron Champ,14727097,G,7700,Workday Charity Open,Golf,73
G,Brandt Snedeker (14727098),Brandt Snedeker,14727098,G,7600,Workday Charity Open,Golf,61.41
G,Corey Conners (14727099),Corey Conners,14727099,G,7600,Workday Charity Open,Golf,61.97
G,Jason Kokrak (14727100),Jason Kokrak,14727100,G,7600,Workday Charity Open,Golf,53.19
G,Harold Varner III (14727101),Harold Varner III,14727101,G,7500,Workday Charity Open,Golf,64
G,Billy Horschel (14727102),Billy Horschel,14727102,G,7500,Workday Charity Open,Golf,62.14
G,Ian Poulter (14727103),Ian Poulter,14727103,G,7500,Workday Charity Open,Golf,63.27
G,Maverick McNealy (14727104),Maverick McNealy,14727104,G,7500,Workday Charity Open,Golf,70.59
G,Rory Sabbatini (14727105),Rory Sabbatini,14727105,G,7400,Workday Charity Open,Golf,58.37
G,Ryan Armour (14727106),Ryan Armour,14727106,G,7400,Workday Charity Open,Golf,54.94
G,Shane Lowry (14727107),Shane Lowry,14727107,G,7400,Workday Charity Open,Golf,55.05
G,Lanto Griffin (14727108),Lanto Griffin,14727108,G,7400,Workday Charity Open,Golf,66.35
G,Mark Hubbard (14727109),Mark Hubbard,14727109,G,7400,Workday Charity Open,Golf,69.06
G,Scott Stallings (14727110),Scott Stallings,14727110,G,7300,Workday Charity Open,Golf,66.9
G,Patrick Rodgers (14727111),Patrick Rodgers,14727111,G,7300,Workday Charity Open,Golf,60.5
G,Russell Henley (14727112),Russell Henley,14727112,G,7300,Workday Charity Open,Golf,54.65
G,Chris Kirk (14727113),Chris Kirk,14727113,G,7300,Workday Charity Open,Golf,46
G,Cameron Tringale (14727114),Cameron Tringale,14727114,G,7300,Workday Charity Open,Golf,65.86
G,Emiliano Grillo (14727115),Emiliano Grillo,14727115,G,7200,Workday Charity Open,Golf,49.91
G,Ryan Palmer (14727116),Ryan Palmer,14727116,G,7200,Workday Charity Open,Golf,68.04
G,Jhonattan Vegas (14727118),Jhonattan Vegas,14727118,G,7200,Workday Charity Open,Golf,62.5
G,Chez Reavie (14727119),Chez Reavie,14727119,G,7200,Workday Charity Open,Golf,57.09
G,Matt Wallace (14727120),Matt Wallace,14727120,G,7200,Workday Charity Open,Golf,51.77
G,Brendan Steele (14727117),Brendan Steele,14727117,G,7100,Workday Charity Open,Golf,60.32
G,Zach Johnson (14727121),Zach Johnson,14727121,G,7100,Workday Charity Open,Golf,55.35
G,Keegan Bradley (14727122),Keegan Bradley,14727122,G,7100,Workday Charity Open,Golf,55.27
G,Brian Stuard (14727123),Brian Stuard,14727123,G,7100,Workday Charity Open,Golf,63.55
G,Max Homa (14727124),Max Homa,14727124,G,7100,Workday Charity Open,Golf,64.29
G,Bud Cauley (14727125),Bud Cauley,14727125,G,7100,Workday Charity Open,Golf,55.61
G,Luke List (14727126),Luke List,14727126,G,7000,Workday Charity Open,Golf,55.06
G,Troy Merritt (14727127),Troy Merritt,14727127,G,7000,Workday Charity Open,Golf,58.07
G,Mackenzie Hughes (14727128),Mackenzie Hughes,14727128,G,7000,Workday Charity Open,Golf,47.1
G,Charles Howell III (14727129),Charles Howell III,14727129,G,7000,Workday Charity Open,Golf,63
G,Kyle Stanley (14727130),Kyle Stanley,14727130,G,7000,Workday Charity Open,Golf,48.59
G,Si Woo Kim (14727131),Si Woo Kim,14727131,G,7000,Workday Charity Open,Golf,46.26
G,Sepp Straka (14727132),Sepp Straka,14727132,G,7000,Workday Charity Open,Golf,45.76
G,Tom Hoge (14727133),Tom Hoge,14727133,G,6900,Workday Charity Open,Golf,55.15
G,Pat Perez (14727134),Pat Perez,14727134,G,6900,Workday Charity Open,Golf,61.12
G,Michael Thompson (14727135),Michael Thompson,14727135,G,6900,Workday Charity Open,Golf,52.68
G,Sam Burns (14727136),Sam Burns,14727136,G,6900,Workday Charity Open,Golf,55.32
G,Vaughn Taylor (14727137),Vaughn Taylor,14727137,G,6900,Workday Charity Open,Golf,61.78
G,Charley Hoffman (14727138),Charley Hoffman,14727138,G,6900,Workday Charity Open,Golf,57.37
G,Jim Furyk (14727139),Jim Furyk,14727139,G,6900,Workday Charity Open,Golf,53.78
G,Richy Werenski (14727140),Richy Werenski,14727140,G,6800,Workday Charity Open,Golf,63.14
G,Seung-Yul Noh (14727141),Seung-Yul Noh,14727141,G,6800,Workday Charity Open,Golf,48.67
G,Dylan Frittelli (14727142),Dylan Frittelli,14727142,G,6800,Workday Charity Open,Golf,59.85
G,Jason Dufner (14727143),Jason Dufner,14727143,G,6800,Workday Charity Open,Golf,47.61
G,Matthew NeSmith (14727144),Matthew NeSmith,14727144,G,6800,Workday Charity Open,Golf,62.26
G,Sebastian Munoz (14727145),Sebastian Munoz,14727145,G,6800,Workday Charity Open,Golf,63.90
G,J.B. Holmes (14727146),J.B. Holmes,14727146,G,6800,Workday Charity Open,Golf,63.07
G,Joseph Bramlett (14727147),Joseph Bramlett,14727147,G,6700,Workday Charity Open,Golf,55.64
G,Danny Lee (14727148),Danny Lee,14727148,G,6700,Workday Charity Open,Golf,59.1
G,Sam Ryder (14727149),Sam Ryder,14727149,G,6700,Workday Charity Open,Golf,51.75
G,Andrew Putnam (14727150),Andrew Putnam,14727150,G,6700,Workday Charity Open,Golf,49.92
G,Nick Taylor (14727151),Nick Taylor,14727151,G,6700,Workday Charity Open,Golf,65.96
G,Patton Kizzire (14727152),Patton Kizzire,14727152,G,6700,Workday Charity Open,Golf,45.41
G,Andrew Landry (14727153),Andrew Landry,14727153,G,6700,Workday Charity Open,Golf,53.21
G,Jimmy Walker (14727154),Jimmy Walker,14727154,G,6600,Workday Charity Open,Golf,44.73
G,Russell Knox (14727155),Russell Knox,14727155,G,6600,Workday Charity Open,Golf,52.89
G,Graeme McDowell (14727156),Graeme McDowell,14727156,G,6600,Workday Charity Open,Golf,55.58
G,Adam Long (14727157),Adam Long,14727157,G,6600,Workday Charity Open,Golf,64.83
G,Hudson Swafford (14727158),Hudson Swafford,14727158,G,6600,Workday Charity Open,Golf,57.5
G,Brice Garnett (14727159),Brice Garnett,14727159,G,6600,Workday Charity Open,Golf,55.43
G,Matt Jones (14727160),Matt Jones,14727160,G,6600,Workday Charity Open,Golf,55.58
G,Nate Lashley (14727161),Nate Lashley,14727161,G,6500,Workday Charity Open,Golf,47.4
G,Brandon Wu (14727162),Brandon Wu,14727162,G,6500,Workday Charity Open,Golf,67.5
G,Harry Higgs (14727163),Harry Higgs,14727163,G,6500,Workday Charity Open,Golf,64.08
G,Adam Schenk (14727164),Adam Schenk,14727164,G,6500,Workday Charity Open,Golf,53.26
G,Sung Kang (14727165),Sung Kang,14727165,G,6500,Workday Charity Open,Golf,59.72
G,Henrik Norlander (14727166),Henrik Norlander,14727166,G,6500,Workday Charity Open,Golf,55.81
G,Chesson Hadley (14727167),Chesson Hadley,14727167,G,6500,Workday Charity Open,Golf,59.77
G,Aaron Wise (14727168),Aaron Wise,14727168,G,6500,Workday Charity Open,Golf,48.93
G,James Hahn (14727169),James Hahn,14727169,G,6400,Workday Charity Open,Golf,51.18
G,Jonathan Byrd (14727170),Jonathan Byrd,14727170,G,6400,Workday Charity Open,Golf,45.5
G,Tyler McCumber (14727171),Tyler McCumber,14727171,G,6400,Workday Charity Open,Golf,52.53
G,Carlos Ortiz (14727172),Carlos Ortiz,14727172,G,6400,Workday Charity Open,Golf,68.34
G,Cameron Davis (14727173),Cameron Davis,14727173,G,6400,Workday Charity Open,Golf,55.25
G,Charl Schwartzel (14727174),Charl Schwartzel,14727174,G,6400,Workday Charity Open,Golf,44.72
G,J.J. Spaun (14727175),J.J. Spaun,14727175,G,6400,Workday Charity Open,Golf,49.97
G,Talor Gooch (14727176),Talor Gooch,14727176,G,6400,Workday Charity Open,Golf,59.76
G,Steve Stricker (14727177),Steve Stricker,14727177,G,6300,Workday Charity Open,Golf,42.14
G,Jamie Lovemark (14727178),Jamie Lovemark,14727178,G,6300,Workday Charity Open,Golf,42
G,Kyoung-Hoon Lee (14727179),Kyoung-Hoon Lee,14727179,G,6300,Workday Charity Open,Golf,48.32
G,Fabian Gomez (14727180),Fabian Gomez,14727180,G,6300,Workday Charity Open,Golf,57.03
G,Stewart Cink (14727181),Stewart Cink,14727181,G,6300,Workday Charity Open,Golf,62.77
G,Ted Potter Jr. (14727182),Ted Potter Jr.,14727182,G,6300,Workday Charity Open,Golf,42.7
G,Chris Stroud (14727183),Chris Stroud,14727183,G,6300,Workday Charity Open,Golf,48.43
G,Beau Hossler (14727184),Beau Hossler,14727184,G,6300,Workday Charity Open,Golf,55.79
G,Austin Cook (14727185),Austin Cook,14727185,G,6300,Workday Charity Open,Golf,49.81
G,Bronson Burgoon (14727186),Bronson Burgoon,14727186,G,6200,Workday Charity Open,Golf,52.2
G,Scott Harrington (14727187),Scott Harrington,14727187,G,6200,Workday Charity Open,Golf,52.59
G,Grayson Murray (14727188),Grayson Murray,14727188,G,6200,Workday Charity Open,Golf,47.88
G,C.T. Pan (14727189),C.T. Pan,14727189,G,6200,Workday Charity Open,Golf,40.46
G,Luke Donald (14727190),Luke Donald,14727190,G,6200,Workday Charity Open,Golf,54.44
G,Cameron Percy (14727191),Cameron Percy,14727191,G,6200,Workday Charity Open,Golf,54.15
G,Lucas Bjerregaard (14727192),Lucas Bjerregaard,14727192,G,6200,Workday Charity Open,Golf,35.72
G,Aaron Baddeley (14727193),Aaron Baddeley,14727193,G,6200,Workday Charity Open,Golf,50.38
G,Keith Mitchell (14727194),Keith Mitchell,14727194,G,6200,Workday Charity Open,Golf,51.13
G,David Hearn (14727195),David Hearn,14727195,G,6200,Workday Charity Open,Golf,49.03
G,Tim Wilkinson (14727196),Tim Wilkinson,14727196,G,6200,Workday Charity Open,Golf,52.12
G,Matt Every (14727197),Matt Every,14727197,G,6100,Workday Charity Open,Golf,40.73
G,D.J. Trahan (14727198),D.J. Trahan,14727198,G,6100,Workday Charity Open,Golf,54.42
G,Roger Sloan (14727199),Roger Sloan,14727199,G,6100,Workday Charity Open,Golf,39.41
G,Rob Oppenheim (14727200),Rob Oppenheim,14727200,G,6100,Workday Charity Open,Golf,51.06
G,Zac Blair (14727201),Zac Blair,14727201,G,6100,Workday Charity Open,Golf,52.92
G,Denny McCarthy (14727202),Denny McCarthy,14727202,G,6100,Workday Charity Open,Golf,64.22
G,Robert Streb (14727203),Robert Streb,14727203,G,6100,Workday Charity Open,Golf,48.5
G,Nick Watney (14727204),Nick Watney,14727204,G,6100,Workday Charity Open,Golf,49
G,Sebastian Cappelen (14727205),Sebastian Cappelen,14727205,G,6100,Workday Charity Open,Golf,51.2
G,Mark Anderson (14727206),Mark Anderson,14727206,G,6100,Workday Charity Open,Golf,54.46
G,Davis Love III (14727207),Davis Love III,14727207,G,6100,Workday Charity Open,Golf,26.14
G,Jerry Kelly (14727208),Jerry Kelly,14727208,G,6100,Workday Charity Open,Golf,64
G,Hank Lebioda (14727209),Hank Lebioda,14727209,G,6000,Workday Charity Open,Golf,47.09
G,Robby Shelton (14727210),Robby Shelton,14727210,G,6000,Workday Charity Open,Golf,51.14
G,K.J. Choi (14727211),K.J. Choi,14727211,G,6000,Workday Charity Open,Golf,40.36
G,Michael Kim (14727212),Michael Kim,14727212,G,6000,Workday Charity Open,Golf,24.82
G,Brian Gay (14727213),Brian Gay,14727213,G,6000,Workday Charity Open,Golf,52.75
G,Peter Malnati (14727214),Peter Malnati,14727214,G,6000,Workday Charity Open,Golf,45.71
G,Jim Herman (14727215),Jim Herman,14727215,G,6000,Workday Charity Open,Golf,38.47
G,Chase Koepka (14727216),Chase Koepka,14727216,G,6000,Workday Charity Open,Golf,70.5
G,Bo Hoag (14727217),Bo Hoag,14727217,G,6000,Workday Charity Open,Golf,54.31
G,Xinjun Zhang (14727218),Xinjun Zhang,14727218,G,6000,Workday Charity Open,Golf,57.08
G,Martin Trainer (14727219),Martin Trainer,14727219,G,6000,Workday Charity Open,Golf,28.71
G,Vijay Singh (14727220),Vijay Singh,14727220,G,6000,Workday Charity Open,Golf,23.08
G,Kevin Stadler (14727221),Kevin Stadler,14727221,G,6000,Workday Charity Open,Golf,25
G,Bo Van Pelt (14727222),Bo Van Pelt,14727222,G,6000,Workday Charity Open,Golf,33.75
G,Kevin Tway (14727223),Kevin Tway,14727223,G,6000,Workday Charity Open,Golf,42.7
