Position,Name + ID,Name,ID,Roster Position,Salary,Game Info,TeamAbbrev,AvgPointsPerGame
G,Tommy Fleetwood (14344265),Tommy Fleetwood,14344265,G,11600,The Honda Classic,Golf,79.92
G,Brooks Koepka (14344266),Brooks Koepka,14344266,G,11200,The Honda Classic,Golf,57.5
G,Rickie Fowler (14344267),Rickie Fowler,14344267,G,10800,The Honda Classic,Golf,77.9
G,Gary Woodland (14344268),Gary Woodland,14344268,G,10300,The Honda Classic,Golf,83.19
G,Justin Rose (14344269),Justin Rose,14344269,G,9900,The Honda Classic,Golf,69.38
G,Louis Oosthuizen (14344270),Louis Oosthuizen,14344270,G,9700,The Honda Classic,Golf,90.5
G,Viktor Hovland (14344271),Viktor Hovland,14344271,G,9500,The Honda Classic,Golf,66.78
G,Sungjae Im (14344272),Sungjae Im,14344272,G,9300,The Honda Classic,Golf,78.92
G,Billy Horschel (14344273),Billy Horschel,14344273,G,9200,The Honda Classic,Golf,71.56
G,Shane Lowry (14344274),Shane Lowry,14344274,G,9100,The Honda Classic,Golf,62.42
G,Erik Van Rooyen (14344275),Erik Van Rooyen,14344275,G,9000,The Honda Classic,Golf,67.86
G,Daniel Berger (14344276),Daniel Berger,14344276,G,8900,The Honda Classic,Golf,76.25
G,Byeong Hun An (14344277),Byeong Hun An,14344277,G,8800,The Honda Classic,Golf,71.86
G,Joaquin Niemann (14344278),Joaquin Niemann,14344278,G,8700,The Honda Classic,Golf,66.55
G,J.T. Poston (14344279),J.T. Poston,14344279,G,8600,The Honda Classic,Golf,69.54
G,Ian Poulter (14344280),Ian Poulter,14344280,G,8500,The Honda Classic,Golf,55.83
G,Charles Howell III (14344281),Charles Howell III,14344281,G,8400,The Honda Classic,Golf,69.04
G,Ryan Palmer (14344282),Ryan Palmer,14344282,G,8300,The Honda Classic,Golf,73.5
G,Corey Conners (14344283),Corey Conners,14344283,G,8200,The Honda Classic,Golf,67.6
G,Charl Schwartzel (14344284),Charl Schwartzel,14344284,G,8100,The Honda Classic,Golf,43.88
G,Luke List (14344285),Luke List,14344285,G,8000,The Honda Classic,Golf,59.29
G,Emiliano Grillo (14344286),Emiliano Grillo,14344286,G,8000,The Honda Classic,Golf,55.46
G,Jhonattan Vegas (14344287),Jhonattan Vegas,14344287,G,7900,The Honda Classic,Golf,58.2
G,Kevin Streelman (14344288),Kevin Streelman,14344288,G,7900,The Honda Classic,Golf,55.92
G,Lee Westwood (14344289),Lee Westwood,14344289,G,7800,The Honda Classic,Golf,69.75
G,Harris English (14344290),Harris English,14344290,G,7800,The Honda Classic,Golf,79.78
G,Matthew Wolff (14344291),Matthew Wolff,14344291,G,7700,The Honda Classic,Golf,61.81
G,Harold Varner III (14344292),Harold Varner III,14344292,G,7700,The Honda Classic,Golf,63.96
G,Vaughn Taylor (14344293),Vaughn Taylor,14344293,G,7600,The Honda Classic,Golf,68.46
G,Russell Knox (14344294),Russell Knox,14344294,G,7600,The Honda Classic,Golf,66.67
G,Wyndham Clark (14344295),Wyndham Clark,14344295,G,7600,The Honda Classic,Golf,54.86
G,Maverick McNealy (14344296),Maverick McNealy,14344296,G,7500,The Honda Classic,Golf,72.38
G,Adam Schenk (14344297),Adam Schenk,14344297,G,7500,The Honda Classic,Golf,55.39
G,Jason Kokrak (14344298),Jason Kokrak,14344298,G,7500,The Honda Classic,Golf,51.78
G,Russell Henley (14344299),Russell Henley,14344299,G,7400,The Honda Classic,Golf,53.25
G,Patrick Rodgers (14344300),Patrick Rodgers,14344300,G,7400,The Honda Classic,Golf,61.4
G,Rory Sabbatini (14344301),Rory Sabbatini,14344301,G,7400,The Honda Classic,Golf,58.5
G,Keegan Bradley (14344302),Keegan Bradley,14344302,G,7400,The Honda Classic,Golf,58.15
G,Brian Harman (14344303),Brian Harman,14344303,G,7300,The Honda Classic,Golf,75.85
G,Kurt Kitayama (14344304),Kurt Kitayama,14344304,G,7300,The Honda Classic,Golf,66.5
G,Bud Cauley (14344305),Bud Cauley,14344305,G,7300,The Honda Classic,Golf,63.83
G,Keith Mitchell (14344306),Keith Mitchell,14344306,G,7300,The Honda Classic,Golf,54.65
G,Harry Higgs (14344307),Harry Higgs,14344307,G,7300,The Honda Classic,Golf,69.38
G,Matthew NeSmith (14344308),Matthew NeSmith,14344308,G,7200,The Honda Classic,Golf,65.83
G,Talor Gooch (14344309),Talor Gooch,14344309,G,7200,The Honda Classic,Golf,68.27
G,Tom Lewis (14344310),Tom Lewis,14344310,G,7200,The Honda Classic,Golf,37.93
G,Kyle Stanley (14344311),Kyle Stanley,14344311,G,7200,The Honda Classic,Golf,50.38
G,Lucas Glover (14344312),Lucas Glover,14344312,G,7200,The Honda Classic,Golf,61.3
G,Cameron Tringale (14344313),Cameron Tringale,14344313,G,7100,The Honda Classic,Golf,68.73
G,Matt Wallace (14344314),Matt Wallace,14344314,G,7100,The Honda Classic,Golf,53.8
G,Brendan Steele (14344315),Brendan Steele,14344315,G,7100,The Honda Classic,Golf,61.3
G,Denny McCarthy (14344316),Denny McCarthy,14344316,G,7100,The Honda Classic,Golf,81
G,Jim Furyk (14344317),Jim Furyk,14344317,G,7100,The Honda Classic,Golf,61.9
G,Sam Burns (14344318),Sam Burns,14344318,G,7100,The Honda Classic,Golf,51.22
G,Xinjun Zhang (14344319),Xinjun Zhang,14344319,G,7000,The Honda Classic,Golf,67.04
G,Sam Ryder (14344320),Sam Ryder,14344320,G,7000,The Honda Classic,Golf,56.89
G,Doc Redman (14344321),Doc Redman,14344321,G,7000,The Honda Classic,Golf,64.12
G,Kyoung-Hoon Lee (14344322),Kyoung-Hoon Lee,14344322,G,7000,The Honda Classic,Golf,51.68
G,Sean O'Hair (14344323),Sean O'Hair,14344323,G,7000,The Honda Classic,Golf,59
G,Cameron Davis (14344324),Cameron Davis,14344324,G,7000,The Honda Classic,Golf,58.67
G,Nick Watney (14344325),Nick Watney,14344325,G,6900,The Honda Classic,Golf,54.2
G,Aaron Wise (14344326),Aaron Wise,14344326,G,6900,The Honda Classic,Golf,48.55
G,Zach Johnson (14344327),Zach Johnson,14344327,G,6900,The Honda Classic,Golf,56.25
G,Beau Hossler (14344328),Beau Hossler,14344328,G,6900,The Honda Classic,Golf,64.21
G,Henrik Norlander (14344329),Henrik Norlander,14344329,G,6900,The Honda Classic,Golf,60.42
G,Tom Hoge (14344330),Tom Hoge,14344330,G,6900,The Honda Classic,Golf,64.27
G,Scott Stallings (14344331),Scott Stallings,14344331,G,6800,The Honda Classic,Golf,62.54
G,Matt Jones (14344332),Matt Jones,14344332,G,6800,The Honda Classic,Golf,58.71
G,Adam Long (14344333),Adam Long,14344333,G,6800,The Honda Classic,Golf,69.58
G,Danny Lee (14344334),Danny Lee,14344334,G,6800,The Honda Classic,Golf,62.4
G,Dylan Frittelli (14344335),Dylan Frittelli,14344335,G,6800,The Honda Classic,Golf,63.33
G,Chesson Hadley (14344336),Chesson Hadley,14344336,G,6800,The Honda Classic,Golf,61.86
G,Kiradech Aphibarnrat (14344337),Kiradech Aphibarnrat,14344337,G,6800,The Honda Classic,Golf,59
G,Grayson Murray (14344338),Grayson Murray,14344338,G,6700,The Honda Classic,Golf,47.72
G,Mark Hubbard (14344339),Mark Hubbard,14344339,G,6700,The Honda Classic,Golf,69.62
G,Chase Seiffert (14344340),Chase Seiffert,14344340,G,6700,The Honda Classic,Golf,61.33
G,Joseph Bramlett (14344341),Joseph Bramlett,14344341,G,6700,The Honda Classic,Golf,60.04
G,Bronson Burgoon (14344342),Bronson Burgoon,14344342,G,6700,The Honda Classic,Golf,62.65
G,Stewart Cink (14344343),Stewart Cink,14344343,G,6700,The Honda Classic,Golf,72.14
G,Brian Stuard (14344344),Brian Stuard,14344344,G,6700,The Honda Classic,Golf,64.12
G,Peter Malnati (14344345),Peter Malnati,14344345,G,6600,The Honda Classic,Golf,49.15
G,Tim Wilkinson (14344346),Tim Wilkinson,14344346,G,6600,The Honda Classic,Golf,60.56
G,Hudson Swafford (14344347),Hudson Swafford,14344347,G,6600,The Honda Classic,Golf,57.3
G,Michael Thompson (14344348),Michael Thompson,14344348,G,6600,The Honda Classic,Golf,44.8
G,Bo Hoag (14344349),Bo Hoag,14344349,G,6600,The Honda Classic,Golf,61.23
G,Ted Potter Jr. (14344350),Ted Potter Jr.,14344350,G,6600,The Honda Classic,Golf,45.09
G,Kevin Tway (14344351),Kevin Tway,14344351,G,6600,The Honda Classic,Golf,56.44
G,Tyler McCumber (14344352),Tyler McCumber,14344352,G,6600,The Honda Classic,Golf,59.96
G,D.J. Trahan (14344353),D.J. Trahan,14344353,G,6500,The Honda Classic,Golf,63.25
G,Camilo Villegas (14344354),Camilo Villegas,14344354,G,6500,The Honda Classic,Golf,0
G,Cameron Percy (14344355),Cameron Percy,14344355,G,6500,The Honda Classic,Golf,59.85
G,Scott Brown (14344356),Scott Brown,14344356,G,6500,The Honda Classic,Golf,49.5
G,Rob Oppenheim (14344357),Rob Oppenheim,14344357,G,6500,The Honda Classic,Golf,58.73
G,Brandon Hagy (14344358),Brandon Hagy,14344358,G,6500,The Honda Classic,Golf,45.75
G,Brice Garnett (14344359),Brice Garnett,14344359,G,6500,The Honda Classic,Golf,56.23
G,Zac Blair (14344360),Zac Blair,14344360,G,6500,The Honda Classic,Golf,56.23
G,Robert Streb (14344361),Robert Streb,14344361,G,6400,The Honda Classic,Golf,54.08
G,Si Woo Kim (14344362),Si Woo Kim,14344362,G,6400,The Honda Classic,Golf,47.91
G,Jimmy Walker (14344363),Jimmy Walker,14344363,G,6400,The Honda Classic,Golf,48.31
G,C.T. Pan (14344364),C.T. Pan,14344364,G,6400,The Honda Classic,Golf,46.5
G,Jason Dufner (14344365),Jason Dufner,14344365,G,6400,The Honda Classic,Golf,44
G,Brian Gay (14344366),Brian Gay,14344366,G,6400,The Honda Classic,Golf,65.5
G,Lucas Bjerregaard (14344367),Lucas Bjerregaard,14344367,G,6400,The Honda Classic,Golf,40.08
G,Sebastian Cappelen (14344368),Sebastian Cappelen,14344368,G,6400,The Honda Classic,Golf,57.04
G,Sepp Straka (14344369),Sepp Straka,14344369,G,6300,The Honda Classic,Golf,42
G,Richy Werenski (14344370),Richy Werenski,14344370,G,6300,The Honda Classic,Golf,59.43
G,John Huh (14344371),John Huh,14344371,G,6300,The Honda Classic,Golf,62.43
G,Jamie Lovemark (14344372),Jamie Lovemark,14344372,G,6300,The Honda Classic,Golf,40.33
G,Austin Cook (14344373),Austin Cook,14344373,G,6300,The Honda Classic,Golf,47.75
G,Robby Shelton (14344374),Robby Shelton,14344374,G,6300,The Honda Classic,Golf,55.31
G,Padraig Harrington (14344375),Padraig Harrington,14344375,G,6300,The Honda Classic,Golf,36.67
G,Mark Anderson (14344376),Mark Anderson,14344376,G,6300,The Honda Classic,Golf,54.85
G,Roger Sloan (14344377),Roger Sloan,14344377,G,6200,The Honda Classic,Golf,41.12
G,Patton Kizzire (14344378),Patton Kizzire,14344378,G,6200,The Honda Classic,Golf,45.46
G,J.J. Spaun (14344379),J.J. Spaun,14344379,G,6200,The Honda Classic,Golf,49.65
G,Chris Stroud (14344380),Chris Stroud,14344380,G,6200,The Honda Classic,Golf,45.45
G,Tyler Duncan (14344381),Tyler Duncan,14344381,G,6200,The Honda Classic,Golf,56.04
G,Matt Every (14344382),Matt Every,14344382,G,6200,The Honda Classic,Golf,47.6
G,Scott Harrington (14344383),Scott Harrington,14344383,G,6200,The Honda Classic,Golf,57.71
G,Jim Herman (14344384),Jim Herman,14344384,G,6200,The Honda Classic,Golf,37.32
G,Luke Donald (14344385),Luke Donald,14344385,G,6200,The Honda Classic,Golf,56.62
G,Chris Baker (14344386),Chris Baker,14344386,G,6100,The Honda Classic,Golf,42.42
G,Mackenzie Hughes (14344387),Mackenzie Hughes,14344387,G,6100,The Honda Classic,Golf,36.64
G,Martin Trainer (14344388),Martin Trainer,14344388,G,6100,The Honda Classic,Golf,30.19
G,Fabian Gomez (14344389),Fabian Gomez,14344389,G,6100,The Honda Classic,Golf,58.5
G,Davis Love III (14344390),Davis Love III,14344390,G,6100,The Honda Classic,Golf,25
G,Ryo Ishikawa (14344391),Ryo Ishikawa,14344391,G,6100,The Honda Classic,Golf,56.17
G,Bo Van Pelt (14344392),Bo Van Pelt,14344392,G,6100,The Honda Classic,Golf,34.7
G,David Hearn (14344393),David Hearn,14344393,G,6100,The Honda Classic,Golf,58.46
G,Seung-Yul Noh (14344394),Seung-Yul Noh,14344394,G,6100,The Honda Classic,Golf,32.83
G,Josh Teater (14350712),Josh Teater,14350712,G,6100,The Honda Classic,Golf,53.83
G,Hank Lebioda (14344395),Hank Lebioda,14344395,G,6000,The Honda Classic,Golf,51.29
G,Vijay Singh (14344396),Vijay Singh,14344396,G,6000,The Honda Classic,Golf,19
G,Satoshi Kodaira (14344397),Satoshi Kodaira,14344397,G,6000,The Honda Classic,Golf,35.45
G,Chris Kirk (14344398),Chris Kirk,14344398,G,6000,The Honda Classic,Golf,40.9
G,Justin Bertsch (14344399),Justin Bertsch,14344399,G,6000,The Honda Classic,Golf,28.5
G,Kramer Hickok (14344400),Kramer Hickok,14344400,G,6000,The Honda Classic,Golf,41.75
G,Michael Gligic (14344401),Michael Gligic,14344401,G,6000,The Honda Classic,Golf,45.46
G,Ryan Armour (14344402),Ryan Armour,14344402,G,6000,The Honda Classic,Golf,48.58
G,Greg Chalmers (14344403),Greg Chalmers,14344403,G,6000,The Honda Classic,Golf,46.12
G,Arjun Atwal (14350713),Arjun Atwal,14350713,G,6000,The Honda Classic,Golf,40.79
G,Wes Roach (14350714),Wes Roach,14350714,G,6000,The Honda Classic,Golf,62.5
G,Doug Ghim (14350715),Doug Ghim,14350715,G,6000,The Honda Classic,Golf,45
G,Hayden Buckley (14350716),Hayden Buckley,14350716,G,6000,The Honda Classic,Golf,0
G,Vincent Whaley (14350717),Vincent Whaley,14350717,G,6000,The Honda Classic,Golf,50
G,Andrew McCain (14350718),Andrew McCain,14350718,G,6000,The Honda Classic,Golf,0
G,Daniel Wetterich (14350719),Daniel Wetterich,14350719,G,6000,The Honda Classic,Golf,0
