 { "value": "salary", "tournament": "2019-10-13-Houston", "golfers": {
"Henrik Stenson": 11400,
"Cameron Champ": 10800,
"Brian Harman": 10600,
"Daniel Berger": 10400,
"Russell Henley": 10100,
"Scottie Scheffler": 9900,
"Pat Perez": 9700,
"Denny McCarthy": 9500,
"Sebastian Munoz": 9400,
"Kyle Stanley": 9300,
"Russell Knox": 9200,
"Matt Jones": 9100,
"Keegan Bradley": 9000,
"Harris English": 8900,
"Sam Ryder": 8800,
"Cameron Tringale": 8700,
"Bud Cauley": 8600,
"Luke List": 8500,
"Bronson Burgoon": 8400,
"Beau Hossler": 8300,
"Carlos Ortiz": 8200,
"Aaron Baddeley": 8100,
"Lanto Griffin": 8000,
"Xinjun Zhang": 8000,
"Robby Shelton": 7900,
"Kevin Chappell": 7900,
"Nick Watney": 7800,
"Martin Laird": 7800,
"Richy Werenski": 7700,
"Brice Garnett": 7700,
"Andrew Landry": 7600,
"Brian Gay": 7600,
"Jhonattan Vegas": 7600,
"Tom Lewis": 7500,
"Lucas Bjerregaard": 7500,
"Austin Cook": 7500,
"Harry Higgs": 7400,
"Tom Hoge": 7400,
"Brendan Steele": 7400,
"Sam Burns": 7400,
"Michael Thompson": 7300,
"Matt Every": 7300,
"Kramer Hickok": 7300,
"Scott Stallings": 7300,
"Zac Blair": 7200,
"Roger Sloan": 7200,
"Doc Redman": 7200,
"Peter Uihlein": 7200,
"Patrick Rodgers": 7100,
"J.J. Spaun": 7100,
"Matthew NeSmith": 7100,
"Sepp Straka": 7100,
"Mark Hubbard": 7100,
"Cameron Davis": 7000,
"David Hearn": 7000,
"Patton Kizzire": 7000,
"Jason Dufner": 7000,
"Kristoffer Ventura": 7000,
"Robert Streb": 7000,
"Johnson Wagner": 6900,
"Ryan Armour": 6900,
"Scott Harrington": 6900,
"Grayson Murray": 6900,
"Joseph Bramlett": 6900,
"Stewart Cink": 6900,
"D.J. Trahan": 6800,
"Chris Stroud": 6800,
"Doug Ghim": 6800,
"Shawn Stefani": 6800,
"Hank Lebioda": 6800,
"Dominic Bozzelli": 6800,
"Peter Malnati": 6700,
"Rob Oppenheim": 6700,
"Talor Gooch": 6700,
"Bo Hoag": 6700,
"Roberto Castro": 6700,
"Brandon Wu": 6700,
"Rhein Gibson": 6600,
"Bill Haas": 6600,
"Zack Sucher": 6600,
"Ted Potter Jr.": 6600,
"George McNeill": 6600,
"James Hahn": 6600,
"Mackenzie Hughes": 6600,
"Seamus Power": 6500,
"Henrik Norlander": 6500,
"Tyler Duncan": 6500,
"Maverick McNealy": 6500,
"Rafael Campos": 6500,
"Mark Anderson": 6500,
"Scott Brown": 6500,
"Ryan Brehm": 6500,
"Ben Taylor": 6400,
"Jim Herman": 6400,
"Ben Crane": 6400,
"Cole Hammer": 6400,
"Tyler McCumber": 6400,
"Vincent Whaley": 6400,
"Brendon Todd": 6400,
"Josh Teater": 6400,
"Wes Roach": 6300,
"David Lingmerth": 6300,
"Hunter Mahan": 6300,
"Chase Seiffert": 6300,
"Michael Gligic": 6300,
"Jonathan Byrd": 6300,
"John Huh": 6300,
"Graham DeLaet": 6300,
"Chris Baker": 6300,
"Robert Garrigus": 6200,
"Chandler Phillips": 6200,
"Brandon Hagy": 6200,
"Dawie Van der Walt": 6200,
"Sebastian Cappelen": 6200,
"D.A. Points": 6200,
"Derek Ernst": 6200,
"Sang-Moon Bae": 6200,
"Nelson Ledesma": 6200,
"John Senden": 6100,
"Chad Campbell": 6100,
"Michael Kim": 6100,
"Tim Herron": 6100,
"Vince Covello": 6100,
"Boo Weekley": 6100,
"Bo Van Pelt": 6100,
"Ricky Barnes": 6100,
"J.J. Henry": 6100,
"Alex Cejka": 6100,
"Tommy Gainey": 6000,
"John Rollins": 6000,
"Daniel Chopra": 6000,
"Braden Bailey": 6000,
"Martin Trainer": 6000,
"Omar Uresti": 6000,
"John Merrick": 6000,
"Michael Gellerman": 6000,
"Michael Perras": 6000,
"Arjun Atwal": 6000,
"Rich Beem": 6000,
"Kevin Stadler": 6000 }} 
