 { "value": "salary", "tournament": "2020-08-09-PGA", "golfers": {
"Justin Thomas": 11300,
"Brooks Koepka": 11100,
"Rory McIlroy": 10700,
"Jon Rahm": 10500,
"Bryson DeChambeau": 10300,
"Xander Schauffele": 10000,
"Webb Simpson": 9700,
"Patrick Cantlay": 9400,
"Tiger Woods": 9200,
"Dustin Johnson": 9000,
"Daniel Berger": 8800,
"Collin Morikawa": 8600,
"Viktor Hovland": 8500,
"Jason Day": 8400,
"Rickie Fowler": 8300,
"Hideki Matsuyama": 8200,
"Matthew Fitzpatrick": 8100,
"Patrick Reed": 8000,
"Tyrrell Hatton": 8000,
"Tony Finau": 7900,
"Gary Woodland": 7900,
"Adam Scott": 7800,
"Justin Rose": 7800,
"Jordan Spieth": 7700,
"Tommy Fleetwood": 7700,
"Abraham Ancer": 7700,
"Sungjae Im": 7600,
"Phil Mickelson": 7600,
"Louis Oosthuizen": 7600,
"Sergio Garcia": 7600,
"Marc Leishman": 7500,
"Shane Lowry": 7500,
"Matt Kuchar": 7500,
"Paul Casey": 7500,
"Matthew Wolff": 7500,
"Brendon Todd": 7400,
"Chez Reavie": 7400,
"Billy Horschel": 7400,
"Bubba Watson": 7400,
"Joaquin Niemann": 7300,
"Scottie Scheffler": 7300,
"Henrik Stenson": 7300,
"Byeong Hun An": 7300,
"Adam Hadwin": 7300,
"Max Homa": 7200,
"Danny Willett": 7200,
"Harris English": 7200,
"Matt Wallace": 7200,
"Kevin Kisner": 7100,
"Ian Poulter": 7100,
"Tom Lewis": 7100,
"Erik Van Rooyen": 7100,
"Kevin Streelman": 7100,
"Kevin Na": 7000,
"Corey Conners": 7000,
"Cameron Champ": 7000,
"Christiaan Bezuidenhout": 7000,
"Richy Werenski": 7000,
"Ryan Moore": 7000,
"Ryan Palmer": 6900,
"Matthias Schwab": 6900,
"Brandt Snedeker": 6900,
"Brendan Steele": 6900,
"Charl Schwartzel": 6900,
"Joel Dahmen": 6900,
"Doc Redman": 6900,
"Bernd Wiesberger": 6800,
"Luke List": 6800,
"Emiliano Grillo": 6800,
"Dylan Frittelli": 6800,
"Rory Sabbatini": 6800,
"Cameron Tringale": 6800,
"Cameron Smith": 6800,
"Joost Luiten": 6700,
"Keegan Bradley": 6700,
"Si Woo Kim": 6700,
"Martin Kaymer": 6700,
"Lucas Glover": 6700,
"Rafa Cabrera Bello": 6700,
"J.T. Poston": 6700,
"Mackenzie Hughes": 6600,
"Brian Harman": 6600,
"Adam Long": 6600,
"Michael Thompson": 6600,
"Russell Henley": 6600,
"Jim Furyk": 6600,
"Harold Varner III": 6600,
"Jason Kokrak": 6500,
"Graeme McDowell": 6500,
"Troy Merritt": 6500,
"Hao-Tong Li": 6500,
"Zach Johnson": 6500,
"Scott Piercy": 6500,
"Sepp Straka": 6500,
"Lanto Griffin": 6500,
"Talor Gooch": 6400,
"Jimmy Walker": 6400,
"Sung Kang": 6400,
"Jason Dufner": 6400,
"Kurt Kitayama": 6400,
"Sebastian Munoz": 6400,
"Robert Macintyre": 6400,
"Bud Cauley": 6400,
"Andrew Landry": 6300,
"Matt Jones": 6300,
"Jazz Janewattananond": 6300,
"Nick Taylor": 6300,
"Carlos Ortiz": 6300,
"Denny McCarthy": 6300,
"Keith Mitchell": 6300,
"Marcus Kinhult": 6300,
"Tom Hoge": 6300,
"Jorge Campillo": 6200,
"Lucas Herbert": 6200,
"C.T. Pan": 6200,
"Mark Hubbard": 6200,
"Chan Kim": 6200,
"Joohyung Kim": 6200,
"Tyler Duncan": 6200,
"Wyndham Clark": 6200,
"Mike Lorenzo-Vera": 6200,
"Victor Perez": 6200,
"Steve Stricker": 6100,
"Benjamin Hebert": 6100,
"Vaughn Taylor": 6100,
"Nate Lashley": 6100,
"Andrew Putnam": 6100,
"Shaun Norris": 6100,
"Jim Herman": 6100,
"Danny Lee": 6100,
"Brian Stuard": 6100,
"Ryo Ishikawa": 6100,
"Ken Tanigawa": 6000,
"Rob Labritz": 6000,
"Shaun Micheel": 6000,
"Rich Beem": 6000,
"Zach J. Johnson": 6000,
"Jeff Roth": 6000,
"Bob Sowards": 6000,
"Shawn Warren": 6000,
"Justin Bertsch": 6000,
"Daniel Balin": 6000,
"Marty Jertson": 6000,
"Judd Gibb": 6000,
"Rod Perry": 6000,
"John O'Leary": 6000,
"Michael Auterson": 6000,
"Rich Berberian": 6000,
"Davis Love III": 6000,
"David Muttitt": 6000,
"Alex Beach": 6000,
"Jason Caron": 6000,
"Ben Cook": 6000,
"Alex Knoll": 6000,
"Ryan Vermeer": 6000,
"Jeff Hart": 6000 }} 
