{
  "golfers": {
    "Aaron Baddeley": 72.5,
    "Aaron Wise": 35,
    "Abraham Ancer": 37.5,
    "Adam Hadwin": 71.5,
    "Adam Schenk": 71.5,
    "Adam Scott": 85.5,
    "Akshay Bhatia": 32.5,
    "Andrew Landry": 38,
    "Andrew Novak": 36,
    "Andrew Putnam": 80,
    "Anirban Lahiri": 33.5,
    "Austin Cook": 41.5,
    "Beau Hossler": 68.5,
    "Ben Taylor": 69,
    "Bill Haas": 29.5,
    "Bo Hoag": 57.5,
    "Bo Van Pelt": 22.5,
    "Branden Grace": 40,
    "Brandon Hagy": 43,
    "Brandt Snedeker": 58,
    "Brendan Steele": 59,
    "Brendon Todd": 30.5,
    "Brian Gay": 88.5,
    "Brian Harman": 72,
    "Brian Stuard": 94,
    "Bronson Burgoon": 72,
    "Brooks Koepka": 31.5,
    "Bryson DeChambeau": 73,
    "Bubba Watson": 39,
    "Bud Cauley": 28.5,
    "Byeong Hun An": 34,
    "C.T. Pan": 34,
    "Cameron Champ": 28.5,
    "Cameron Percy": 33,
    "Cameron Smith": 72.5,
    "Carlos Ortiz": 65,
    "Charles Howell III": 65,
    "Charley Hoffman": 70,
    "Chase Koepka": 56,
    "Chesson Hadley": 73,
    "Chez Reavie": 38.5,
    "Chris Stroud": 72,
    "Collin Morikawa": 82.5,
    "Daniel Berger": 71.5,
    "Danny Lee": 57.5,
    "Denny McCarthy": 89,
    "Doc Redman": 76,
    "Dylan Frittelli": 37,
    "Dylan Wu": 39.5,
    "Emiliano Grillo": 34.5,
    "Fabian Gomez": 56.5,
    "Gary Woodland": 60.5,
    "Graham DeLaet": 33.5,
    "Grayson Murray": 22,
    "Harold Varner III": 74,
    "Harry Higgs": 35,
    "Henrik Norlander": 35,
    "Hideki Matsuyama": 63,
    "Isaiah Salinda": 55.5,
    "J.J. Spaun": 36.5,
    "J.T. Poston": 33.5,
    "Jack Trent": 66.5,
    "James Hahn": 64.5,
    "Jason Kokrak": 48,
    "Jhonattan Vegas": 29.5,
    "Jim Furyk": 59,
    "Jim Herman": 22,
    "Joaquin Niemann": 36.5,
    "Joel Dahmen": 77.5,
    "John Huh": 57.5,
    "John Oda": 49,
    "Keegan Bradley": 57,
    "Keith Mitchell": 28.5,
    "Kevin Na": 129,
    "Kevin Stadler": 19.5,
    "Kevin Streelman": 30,
    "Kevin Tway": 58.5,
    "Kramer Hickok": 30.5,
    "Kristoffer Ventura": 81,
    "Kurt Kitayama": 35.5,
    "Kyle Stanley": 71.5,
    "Kyoung-Hoon Lee": 31.5,
    "Lanto Griffin": 75,
    "Lucas Bjerregaard": 20,
    "Lucas Glover": 97,
    "Luke List": 89.5,
    "Mackenzie Hughes": 28.5,
    "Mark Hubbard": 62.5,
    "Martin Laird": 66,
    "Martin Trainer": 26.5,
    "Matt Every": 61,
    "Matt Jones": 76.5,
    "Matthew NeSmith": 71.5,
    "Matthew Wolff": 67,
    "Maverick McNealy": 79,
    "Max Homa": 31.5,
    "Michael Hopper": 34,
    "Michael Kim": 29.5,
    "Michael Thompson": 21.5,
    "Morgan Hoffmann": 28.5,
    "Nate Lashley": 59,
    "Nelson Ledesma": 19.5,
    "Nick Taylor": 77,
    "Nick Watney": 34.5,
    "Pat Perez": 110,
    "Patrick Cantlay": 109.5,
    "Patrick Rodgers": 29.5,
    "Patton Kizzire": 69.5,
    "Peter Malnati": 38,
    "Peter Uihlein": 51,
    "Phil Mickelson": 54.5,
    "Rob Oppenheim": 35.5,
    "Robby Shelton": 59.5,
    "Rod Pampling": 38,
    "Roger Sloan": 36.5,
    "Rory Sabbatini": 32,
    "Russell Henley": 65,
    "Russell Knox": 74.5,
    "Ryan Armour": 31,
    "Ryan Brehm": 36.5,
    "Ryan Moore": 84,
    "Ryan Palmer": 63,
    "Sam Burns": 30,
    "Sam Ryder": 101,
    "Satoshi Kodaira": 23,
    "Scott Brown": 19,
    "Scott Piercy": 37,
    "Scott Stallings": 75.5,
    "Scottie Scheffler": 52,
    "Sebastian Munoz": 48,
    "Sepp Straka": 31,
    "Si Woo Kim": 59,
    "Smylie Kaufman": 9.5,
    "Sung Kang": 70,
    "Talor Gooch": 50,
    "Ted Potter Jr.": 37,
    "Tom Lewis": 32.5,
    "Tony Finau": 92,
    "Troy Merritt": 63.5,
    "Webb Simpson": 86.5,
    "Wyndham Clark": 38,
    "Xinjun Zhang": 77,
    "Zac Blair": 18.5,
    "Zach Johnson": 30.5
  },
  "tournament": "2019-10-06-Shriners",
  "value": "score"
}
