{
  "golfers": {
    "Abraham Ancer": 112,
    "Adam Hadwin": 67.5,
    "Adam Scott": 92.5,
    "Andrea Pavan": 62,
    "Andrew Putnam": 68.5,
    "Benjamin Hebert": 55,
    "Bernd Wiesberger": 57.5,
    "Billy Horschel": 77,
    "Bryce Easton": 58.5,
    "Bubba Watson": 72,
    "Byeong Hun An": 86,
    "Cameron Smith": 66.5,
    "Chan Kim": 63,
    "Charles Howell III": 69,
    "Chez Reavie": 53.5,
    "Christiaan Bezuidenhout": 88,
    "Corey Conners": 90,
    "Daniel Nisbet": 30,
    "Danny Willett": 50.5,
    "Erik Van Rooyen": 69.5,
    "Francesco Molinari": 73,
    "Hao-Tong Li": 83,
    "Henrik Stenson": 81,
    "Hideki Matsuyama": 96,
    "Ian Poulter": 19.5,
    "J.T. Poston": 81.5,
    "Jake McLeod": 54,
    "Jason Kokrak": 87,
    "Jazz Janewattananond": 80.5,
    "Jbe Kruger": 62,
    "Joost Luiten": 67.5,
    "Jordan Spieth": 66.5,
    "Jorge Campillo": 67.5,
    "Justin Harding": 62.5,
    "Justin Rose": 86.5,
    "Keegan Bradley": 71.5,
    "Kevin Kisner": 73,
    "Kevin Na": 0,
    "Kevin Tway": 48.5,
    "Kurt Kitayama": 73.5,
    "Louis Oosthuizen": 122.5,
    "Lucas Glover": 61,
    "Masahiro Kawamura": 83,
    "Matt Wallace": 61.5,
    "Matthew Fitzpatrick": 97,
    "Matthew Millar": 45.5,
    "Matthias Schwab": 108.5,
    "Mike Lorenzo-Vera": 60.5,
    "Mikumu Horikawa": 72,
    "Neil Schietekat": 56,
    "Patrick Reed": 89.5,
    "Paul Casey": 75.5,
    "Paul Waring": 102.5,
    "Phil Mickelson": 68,
    "Rafa Cabrera Bello": 57,
    "Richard Sterne": 48,
    "Robert Macintyre": 81.5,
    "Romain Langasque": 58.5,
    "Rory McIlroy": 140.5,
    "Ryo Ishikawa": 63,
    "Scott Hend": 71.5,
    "Sergio Garcia": 56,
    "Shane Lowry": 65,
    "Sungjae Im": 90,
    "Tae Hee Lee": 55.5,
    "Tommy Fleetwood": 55.5,
    "Tony Finau": 63.5,
    "Tyrrell Hatton": 89.5,
    "Victor Perez": 113.5,
    "Wen-Chong Liang": 48.5,
    "Wu Ashun": 44,
    "Xander Schauffele": 131,
    "Xinjun Zhang": 64.5,
    "Yechun Yuan": 80,
    "Yi Keun Chang": 33,
    "Yosuke Asaji": 71.5,
    "Zander Lombard": 52,
    "Zecheng Dou": 61.5,
    "Zheng-kai Bai": 47
  },
  "tournament": "2019-11-03-WGC-HSBC",
  "value": "score"
}
