{
  "golfers": {
    "Abraham Ancer": 44,
    "Adam Hadwin": 52.5,
    "Adam Long": 20.5,
    "Alex Noren": 18.5,
    "Andrew Landry": 17,
    "Andrew Putnam": 13.5,
    "Andy Ogletree": 12,
    "Bernd Wiesberger": 17,
    "Bill Haas": 0,
    "Billy Horschel": 70.5,
    "Bo Hoag": 45.5,
    "Branden Grace": 21,
    "Brandt Snedeker": 0,
    "Brendan Steele": 66.5,
    "Brendon Todd": 61.5,
    "Brian Harman": 20,
    "Brian Stuard": 23.5,
    "Brooks Koepka": 51.5,
    "Bryson DeChambeau": 31.5,
    "Bubba Watson": 65.5,
    "Bud Cauley": 46.5,
    "Byeong Hun An": 24.5,
    "C.T. Pan": 54,
    "Cameron Champ": 15,
    "Cameron Smith": 39.5,
    "Carl Pettersson": 55,
    "Carlos Ortiz": 57.5,
    "Charl Schwartzel": 29.5,
    "Charles Howell III": 54,
    "Chez Reavie": 57,
    "Christiaan Bezuidenhout": 56.5,
    "Collin Morikawa": 51,
    "Corey Conners": 53.5,
    "Daniel Berger": 30,
    "Danny Lee": 7,
    "Danny Willett": 61.5,
    "David Lingmerth": 2.5,
    "Denny McCarthy": 47.5,
    "Doc Redman": 16.5,
    "Dustin Johnson": 16.5,
    "Dylan Frittelli": 59.5,
    "Emiliano Grillo": 20,
    "Erik Van Rooyen": 59,
    "Ernie Els": 23,
    "Gary Woodland": 67.5,
    "Graeme McDowell": 18,
    "Hao-Tong Li": 19,
    "Harold Varner III": 21,
    "Harris English": 56,
    "Harry Higgs": 12,
    "Henrik Norlander": 76.5,
    "Hideki Matsuyama": 18,
    "Ian Poulter": 21,
    "J.T. Poston": 18,
    "Jason Day": 81,
    "Jason Dufner": 46,
    "Jason Kokrak": 6.5,
    "Jason Scrivener": 16.5,
    "Jazz Janewattananond": 13,
    "Jim Furyk": 52.5,
    "Jim Herman": 27,
    "Jimmy Walker": 50.5,
    "Joaquin Niemann": 25.5,
    "Joel Dahmen": 31.5,
    "Jon Rahm": 105.5,
    "Jordan Spieth": 68.5,
    "Justin Rose": 24.5,
    "Justin Thomas": 62.5,
    "K.J. Choi": 3,
    "Keegan Bradley": 41,
    "Keith Mitchell": 66,
    "Kevin Kisner": 22,
    "Kevin Na": 73.5,
    "Kevin Streelman": 45.5,
    "Kevin Tway": 7,
    "Lanto Griffin": 48.5,
    "Louis Oosthuizen": 47,
    "Lucas Glover": 53.5,
    "Luke List": 67,
    "Mackenzie Hughes": 80.5,
    "Marc Leishman": 53.5,
    "Mark Hubbard": 40,
    "Matt Kuchar": 56,
    "Matt Wallace": 87,
    "Matthew Fitzpatrick": 89,
    "Matthew NeSmith": 13.5,
    "Matthew Wolff": 70,
    "Matthias Schwab": 16.5,
    "Maverick McNealy": 9,
    "Max Homa": 29.5,
    "Nate Lashley": 6,
    "Nick Taylor": 26.5,
    "Patrick Cantlay": 60.5,
    "Patrick Reed": 73.5,
    "Patrick Rodgers": 65.5,
    "Paul Casey": 28,
    "Peter Kuest": 16.5,
    "Phil Mickelson": 50.5,
    "Rafa Cabrera Bello": 23,
    "Rickie Fowler": 29,
    "Rory McIlroy": 65.5,
    "Rory Sabbatini": 19.5,
    "Ryan Moore": 56,
    "Ryan Palmer": 89,
    "Scott Harrington": 64.5,
    "Scott Piercy": 56,
    "Scottie Scheffler": 61,
    "Sebastian Munoz": 47,
    "Sepp Straka": 45,
    "Sergio Garcia": 59.5,
    "Shane Lowry": 20,
    "Si Woo Kim": 70.5,
    "Steve Stricker": 55.5,
    "Stewart Cink": 32.5,
    "Sung Kang": 36,
    "Sungjae Im": 22,
    "Talor Gooch": 22,
    "Tiger Woods": 54,
    "Tom Hoge": 20.5,
    "Tom Lehman": 0,
    "Tony Finau": 84.5,
    "Troy Merritt": 17,
    "Tyler Duncan": 40.5,
    "Vaughn Taylor": 17,
    "Victor Perez": 12.5,
    "Vijay Singh": 44.5,
    "Viktor Hovland": 60,
    "Webb Simpson": 24.5,
    "William McGirt": 41,
    "Wyndham Clark": 27.5,
    "Xander Schauffele": 74.5,
    "Xinjun Zhang": 69.5,
    "Zac Blair": 16.5,
    "Zach Johnson": 43.5
  },
  "tournament": "2020-07-19-Memorial",
  "value": "score"
}
