{
  "golfers": {
    "Abraham Ancer": 57.5,
    "Adam Hadwin": 54.5,
    "Adam Long": 64,
    "Adam Scott": 62,
    "Alex Beach": 23.5,
    "Alex Knoll": 4.5,
    "Andrew Landry": 27.5,
    "Andrew Putnam": 16.5,
    "Ben Cook": 18.5,
    "Benjamin Hebert": 18.5,
    "Bernd Wiesberger": 67,
    "Billy Horschel": 59.5,
    "Bob Sowards": 19.5,
    "Brandt Snedeker": 54.5,
    "Brendan Steele": 68,
    "Brendon Todd": 69.5,
    "Brian Harman": 51,
    "Brian Stuard": 16.5,
    "Brooks Koepka": 66,
    "Bryson DeChambeau": 96.5,
    "Bubba Watson": 48.5,
    "Bud Cauley": 61.5,
    "Byeong Hun An": 80.5,
    "C.T. Pan": 23.5,
    "Cameron Champ": 80,
    "Cameron Smith": 58.5,
    "Cameron Tringale": 23,
    "Carlos Ortiz": 22.5,
    "Chan Kim": 28,
    "Charl Schwartzel": 62.5,
    "Chez Reavie": 45,
    "Christiaan Bezuidenhout": 23.5,
    "Collin Morikawa": 122.5,
    "Corey Conners": 21,
    "Daniel Balin": 13.5,
    "Daniel Berger": 76,
    "Danny Lee": 56,
    "Danny Willett": 19,
    "David Muttitt": 16,
    "Davis Love III": 15,
    "Denny McCarthy": 65.5,
    "Doc Redman": 64.5,
    "Dustin Johnson": 104,
    "Dylan Frittelli": 71,
    "Emiliano Grillo": 53,
    "Erik Van Rooyen": 59,
    "Gary Woodland": 53,
    "Graeme McDowell": 20,
    "Hao-Tong Li": 73.5,
    "Harold Varner III": 71,
    "Harris English": 68.5,
    "Henrik Stenson": 26.5,
    "Hideki Matsuyama": 67,
    "Ian Poulter": 76,
    "J.T. Poston": 53,
    "Jason Caron": 21,
    "Jason Day": 91,
    "Jason Dufner": 31.5,
    "Jason Kokrak": 22.5,
    "Jazz Janewattananond": 22,
    "Jeff Hart": 7.5,
    "Jeff Roth": 16,
    "Jim Furyk": 25,
    "Jim Herman": 46,
    "Jimmy Walker": 21.5,
    "Joaquin Niemann": 22,
    "Joel Dahmen": 89,
    "John O'Leary": 19.5,
    "Jon Rahm": 71.5,
    "Joohyung Kim": 20,
    "Joost Luiten": 53,
    "Jordan Spieth": 50,
    "Jorge Campillo": 16,
    "Judd Gibb": -1,
    "Justin Bertsch": 7.5,
    "Justin Rose": 83.5,
    "Justin Thomas": 71,
    "Keegan Bradley": 22.5,
    "Keith Mitchell": 55,
    "Ken Tanigawa": 10.5,
    "Kevin Kisner": 78,
    "Kevin Na": 28,
    "Kevin Streelman": 60,
    "Kurt Kitayama": 63.5,
    "Lanto Griffin": 71,
    "Louis Oosthuizen": 69.5,
    "Lucas Glover": 23,
    "Lucas Herbert": 26,
    "Luke List": 57,
    "Mackenzie Hughes": 57.5,
    "Marc Leishman": 25,
    "Marcus Kinhult": 11,
    "Mark Hubbard": 57.5,
    "Martin Kaymer": 25,
    "Marty Jertson": 15,
    "Matt Jones": 19.5,
    "Matt Kuchar": 21,
    "Matt Wallace": 44,
    "Matthew Fitzpatrick": 26,
    "Matthew Wolff": 96.5,
    "Matthias Schwab": 20,
    "Max Homa": 19.5,
    "Michael Auterson": 12,
    "Michael Thompson": 21,
    "Mike Lorenzo-Vera": 70,
    "Nate Lashley": 57,
    "Nick Taylor": 14,
    "Patrick Cantlay": 60,
    "Patrick Reed": 73,
    "Paul Casey": 99.5,
    "Phil Mickelson": 50.5,
    "Rafa Cabrera Bello": 18,
    "Rich Beem": 10,
    "Rich Berberian": 15,
    "Richy Werenski": 28.5,
    "Rickie Fowler": 30.5,
    "Rob Labritz": 17,
    "Robert Macintyre": 48,
    "Rod Perry": 8.5,
    "Rory McIlroy": 74,
    "Rory Sabbatini": 49.5,
    "Russell Henley": 60.5,
    "Ryan Moore": 0,
    "Ryan Palmer": 76,
    "Ryan Vermeer": 13.5,
    "Ryo Ishikawa": 27,
    "Scott Piercy": 32,
    "Scottie Scheffler": 96.5,
    "Sebastian Munoz": 23,
    "Sepp Straka": 60.5,
    "Sergio Garcia": 21.5,
    "Shane Lowry": 56.5,
    "Shaun Micheel": 12.5,
    "Shaun Norris": 23.5,
    "Shawn Warren": 14.5,
    "Si Woo Kim": 75,
    "Steve Stricker": 21.5,
    "Sung Kang": 38.5,
    "Sungjae Im": 21.5,
    "Talor Gooch": 22,
    "Tiger Woods": 60,
    "Tom Hoge": 49.5,
    "Tom Lewis": 24.5,
    "Tommy Fleetwood": 67,
    "Tony Finau": 89,
    "Troy Merritt": 18,
    "Tyler Duncan": 17.5,
    "Tyrrell Hatton": 30,
    "Vaughn Taylor": 0,
    "Victor Perez": 66.5,
    "Viktor Hovland": 59.5,
    "Webb Simpson": 55.5,
    "Wyndham Clark": 23.5,
    "Xander Schauffele": 76.5,
    "Xinjun Zhang": 25.5,
    "Zach J. Johnson": 4,
    "Zach Johnson": 27
  },
  "tournament": "2020-08-09-PGA",
  "value": "score"
}
