{
  "golfers": {
    "Abraham Ancer": 45,
    "Adam Hadwin": 43,
    "Adam Long": 44,
    "Adam Scott": 46.5,
    "Alex Noren": 45.5,
    "Andrew Landry": 27,
    "Billy Horschel": 41.5,
    "Brendan Steele": 48,
    "Brendon Todd": 74,
    "Brian Harman": 62,
    "Bryson DeChambeau": 46,
    "Bubba Watson": 52,
    "Byeong Hun An": 62,
    "Cameron Champ": 34,
    "Cameron Smith": 52,
    "Carlos Ortiz": 48,
    "Charles Howell III": 45,
    "Collin Morikawa": 54.5,
    "Corey Conners": 56.5,
    "Daniel Berger": 56.5,
    "Danny Lee": 52,
    "Dustin Johnson": 82.5,
    "Dylan Frittelli": 46,
    "Gary Woodland": 50,
    "Harris English": 43.5,
    "Harry Higgs": 35,
    "Hideki Matsuyama": 79.5,
    "J.T. Poston": 40.5,
    "Jason Day": 33.5,
    "Jason Kokrak": 69,
    "Jim Herman": 42,
    "Joaquin Niemann": 77,
    "Joel Dahmen": 57.5,
    "Jon Rahm": 94,
    "Justin Thomas": 54,
    "Kevin Kisner": 48,
    "Kevin Na": 37,
    "Kevin Streelman": 48.5,
    "Lanto Griffin": 63.5,
    "Louis Oosthuizen": 51,
    "Mackenzie Hughes": 55,
    "Marc Leishman": 14,
    "Mark Hubbard": 34,
    "Matt Kuchar": 37,
    "Matthew Fitzpatrick": 71,
    "Matthew Wolff": 54,
    "Maverick McNealy": 42.5,
    "Max Homa": 38.5,
    "Michael Thompson": 37.5,
    "Nick Taylor": 41,
    "Patrick Cantlay": 61.5,
    "Patrick Reed": 49,
    "Paul Casey": 52,
    "Richy Werenski": 51.5,
    "Robby Shelton": 31,
    "Rory McIlroy": 61.5,
    "Russell Henley": 49,
    "Ryan Palmer": 42,
    "Scottie Scheffler": 56,
    "Sebastian Munoz": 57.5,
    "Sungjae Im": 41.5,
    "Talor Gooch": 34.5,
    "Tiger Woods": 41,
    "Tom Hoge": 38,
    "Tony Finau": 73.5,
    "Tyler Duncan": 45,
    "Tyrrell Hatton": 53.5,
    "Viktor Hovland": 47.5,
    "Webb Simpson": 0,
    "Xander Schauffele": 55
  },
  "tournament": "2020-08-30-BMW",
  "value": "score"
}
