{
  "golfers": {
    "Abraham Ancer": 26,
    "Adam Hadwin": 32.5,
    "Adam Long": 75,
    "Adam Schenk": 81,
    "Adam Scott": 74.5,
    "Alex Noren": 101,
    "Andrew Landry": 62.5,
    "Beau Hossler": 68,
    "Billy Horschel": 30.5,
    "Bo Hoag": 25,
    "Brandt Snedeker": 22.5,
    "Brendan Steele": 78,
    "Brendon Todd": 70.5,
    "Brian Gay": 24,
    "Brian Harman": 95,
    "Brian Stuard": 28,
    "Brice Garnett": 40.5,
    "Brooks Koepka": 0,
    "Bryson DeChambeau": 27,
    "Bubba Watson": 88,
    "Bud Cauley": 33,
    "Byeong Hun An": 19,
    "Cameron Champ": 35,
    "Cameron Davis": 97,
    "Cameron Smith": 94,
    "Cameron Tringale": 86,
    "Carlos Ortiz": 37,
    "Charles Howell III": 83.5,
    "Charley Hoffman": 92.5,
    "Chez Reavie": 78,
    "Collin Morikawa": 28,
    "Corey Conners": 88.5,
    "Daniel Berger": 117.5,
    "Danny Lee": 87,
    "Denny McCarthy": 71,
    "Doc Redman": 25.5,
    "Dustin Johnson": 172,
    "Dylan Frittelli": 23.5,
    "Emiliano Grillo": 85,
    "Gary Woodland": 31,
    "Graeme McDowell": 21,
    "Harold Varner III": 31,
    "Harris English": 130.5,
    "Harry Higgs": 94,
    "Henrik Norlander": 28.5,
    "Hideki Matsuyama": 80.5,
    "Ian Poulter": 71,
    "J.T. Poston": 73.5,
    "Jason Day": 26.5,
    "Jason Kokrak": 92,
    "Jim Herman": 24,
    "Joaquin Niemann": 33,
    "Joel Dahmen": 36.5,
    "Jon Rahm": 110.5,
    "Jordan Spieth": 41,
    "Justin Rose": 90,
    "Justin Thomas": 73.5,
    "Keegan Bradley": 81,
    "Keith Mitchell": 84,
    "Kevin Kisner": 103.5,
    "Kevin Na": 75.5,
    "Kevin Streelman": 69.5,
    "Kyoung-Hoon Lee": 82.5,
    "Lanto Griffin": 72.5,
    "Louis Oosthuizen": 97,
    "Lucas Glover": 24,
    "Luke List": 28,
    "Mackenzie Hughes": 102.5,
    "Marc Leishman": 24.5,
    "Mark Hubbard": 89,
    "Matt Jones": 65.5,
    "Matt Kuchar": 86.5,
    "Matthew Fitzpatrick": 29.5,
    "Matthew NeSmith": 31,
    "Matthew Wolff": 77,
    "Maverick McNealy": 74.5,
    "Max Homa": 30.5,
    "Michael Thompson": 22,
    "Nate Lashley": 22.5,
    "Nick Taylor": 31,
    "Pat Perez": 19.5,
    "Patrick Cantlay": 24,
    "Patrick Reed": 76.5,
    "Patrick Rodgers": 55.5,
    "Paul Casey": 69.5,
    "Phil Mickelson": 29,
    "Richy Werenski": 62,
    "Rickie Fowler": 72.5,
    "Robby Shelton": 96.5,
    "Rory McIlroy": 69.5,
    "Rory Sabbatini": 33,
    "Russell Henley": 100.5,
    "Ryan Armour": 12.5,
    "Ryan Moore": 1.5,
    "Ryan Palmer": 100,
    "Sam Burns": 24.5,
    "Sam Ryder": 29,
    "Scott Brown": 37,
    "Scott Harrington": 61.5,
    "Scott Piercy": 84.5,
    "Scott Stallings": 30,
    "Scottie Scheffler": 111,
    "Sebastian Munoz": 96,
    "Sepp Straka": 26.5,
    "Shane Lowry": 32.5,
    "Si Woo Kim": 81.5,
    "Sung Kang": 27,
    "Sungjae Im": 31,
    "Talor Gooch": 99,
    "Tiger Woods": 70.5,
    "Tom Hoge": 32.5,
    "Tom Lewis": 22,
    "Tommy Fleetwood": 84,
    "Tony Finau": 28,
    "Troy Merritt": 86.5,
    "Tyler Duncan": 91,
    "Tyrrell Hatton": 92,
    "Vaughn Taylor": 0,
    "Viktor Hovland": 104.5,
    "Webb Simpson": 103,
    "Wyndham Clark": 94,
    "Xander Schauffele": 79.5,
    "Xinjun Zhang": 30.5,
    "Zac Blair": 22.5,
    "Zach Johnson": 78
  },
  "tournament": "2020-08-23-Northern",
  "value": "score"
}
